[
  {
    "symbol": "^DJI",
    "name": "Dow Jones Industrial"
  },
  {
    "symbol": "^NDX",
    "name": "NASDAQ 100"
  },
  {
    "symbol": "^IXIC",
    "name": "NASDAQ Composite"
  },
  {
    "symbol": "^GSPC",
    "name": "S&P 500"
  }
]